{
  "welcomeFile": "/webapp/index.html",
  "routes": [
    {
      "path": "/resources",
      "target": {
        "type": "service",
        "name": "sapui5",
        "entryPath": "/resources"
      },
      "description": "SAPUI5 Resources"
    },
    {
      "path": "/test-resources",
      "target": {
        "type": "service",
        "name": "sapui5",
        "entryPath": "/test-resources"
      },
      "description": "SAPUI5 Test Resources"
    },
    {
		"path": "/ErpApi",
		"target": {
			"type": "destination",
			"name": "ErpApi"
		},
		"description": ""
	}, {
		"path": "/Flow7Api",
		"target": {
			"type": "destination",
			"name": "Flow7Api"
		},
		"description": ""
	}, {
		"path": "/resources/newtype/sap/generic",
		"target": {
			"type": "application",
			"name": "custompaysupplierdialog"
		},
		"description": "Custom control library"
	}, {
		"path": "/resources/newtype/sap/generic",
		"target": {
			"type": "application",
			"name": "customownershipdepartment"
		},
		"description": "Custom control library"
	}, {
		"path": "/resources/newtype/sap/generic",
		"target": {
			"type": "application",
			"name": "customprojectcodedialog"
		},
		"description": "Custom control library"
	}
  ],
  "sendWelcomeFileRedirect": true
}